…
```r
deserts %>% 
  group_by(species) %>% 
  count(species) %>% 
  arrange(desc(n))
```

```
## # A tibble: 40 × 2
## # Groups:   species [40]
##    species          n
##    <chr>        <int>
##  1 merriami     10596
##  2 penicillatus  3123
##  3 ordii         3027
##  4 baileyi       2891
##  5 megalotis     2609
##  6 spectabilis   2504
##  7 torridus      2249
##  8 flavus        1597
##  9 eremicus      1299
## 10 albigula      1252
## # ℹ 30 more rows
```


```r
deserts %>% 
  group_by(species) %>% 
  count(species) %>% 
  arrange(n)
```

```
## # A tibble: 40 × 2
## # Groups:   species [40]
##    species          n
##    <chr>        <int>
##  1 clarki           1
##  2 scutalatus       1
##  3 tereticaudus     1
##  4 tigris           1
##  5 uniparens        1
##  6 viridis          1
##  7 leucophrys       2
##  8 savannarum       2
##  9 fuscus           5
## 10 undulatus        5
## # ℹ 30 more rows
```

```r
deserts %>% 
  group_by(genus) %>% 
  count(genus) %>% 
  arrange(desc(n))
```

```
## # A tibble: 26 × 2
## # Groups:   genus [26]
##    genus                n
##    <chr>            <int>
##  1 Dipodomys        16167
##  2 Chaetodipus       6029
##  3 Onychomys         3267
##  4 Reithrodontomys   2694
##  5 Peromyscus        2234
##  6 Perognathus       1629
##  7 Neotoma           1252
##  8 Ammospermophilus   437
##  9 Amphispiza         303
## 10 Spermophilus       249
## # ℹ 16 more rows
```
…
9. Which two species have, on average, the highest weight? Once you have identified them, make a new column that is a ratio of `weight` to `hindfoot_length`. Make a plot that shows the range of this new ratio and fill by sex.

```r
deserts %>% 
  group_by(species) %>% 
  summarise(mean_w=mean(weight, na.rm = T)) %>% 
  arrange(desc(mean_w))
```

```
## # A tibble: 40 × 2
##    species      mean_w
##    <chr>         <dbl>
##  1 albigula      159. 
##  2 spectabilis   120. 
##  3 spilosoma      93.5
##  4 hispidus       65.6
##  5 fulviventer    58.9
##  6 ochrognathus   55.4
##  7 ordii          48.9
##  8 merriami       43.2
##  9 baileyi        31.7
## 10 leucogaster    31.6
## # ℹ 30 more rows
```
…
