…
5. (3 points) How do the number and types of injuries compare by county? Make a table (not a plot) that shows the number of injury types by county. Which county has the highest number of fatalities?  

```r
sharks %>% 
  group_by(county) %>% 
  count(injury) %>% 
  arrange(desc(n))
```

```
## # A tibble: 57 × 3
## # Groups:   county [21]
##    county        injury     n
##    <chr>         <chr>  <int>
##  1 San Mateo     none      12
##  2 Humboldt      none       9
##  3 Marin         major      9
##  4 San Diego     none       9
##  5 Santa Barbara none       9
##  6 Monterey      major      8
##  7 San Diego     minor      8
##  8 Santa Cruz    none       8
##  9 Sonoma        major      8
## 10 Humboldt      major      7
## # ℹ 47 more rows
```
…
