…
2. Notice that we have some neutral superheros! Who are they? List their names below.  


```r
superhero_info_n %>% 
  select(name, alignment) %>% 
  filter(alignment=="neutral")
```

```
## # A tibble: 24 × 2
##    name         alignment
##    <chr>        <chr>    
##  1 bizarro      neutral  
##  2 black flash  neutral  
##  3 captain cold neutral  
##  4 copycat      neutral  
##  5 deadpool     neutral  
##  6 deathstroke  neutral  
##  7 etrigan      neutral  
##  8 galactus     neutral  
##  9 gladiator    neutral  
## 10 indigo       neutral  
## # ℹ 14 more rows
```

## `superhero_info`
3. Let's say we are only interested in the variables name, alignment, and "race". How would you isolate these variables from `superhero_info`?


```r
select(superhero_info_n, "name", "alignment", "race")
```

```
## # A tibble: 734 × 3
##    name          alignment race             
##    <chr>         <chr>     <chr>            
##  1 a-bomb        good      human            
##  2 abe sapien    good      icthyo sapien    
##  3 abin sur      good      ungaran          
##  4 abomination   bad       human / radiation
##  5 abraxas       bad       cosmic entity    
##  6 absorbing man bad       human            
##  7 adam monroe   good      <NA>             
##  8 adam strange  good      human            
##  9 agent 13      good      <NA>             
## 10 agent bob     good      human            
## # ℹ 724 more rows
```

## Not Human
4. List all of the superheros that are not human.


```r
filter(superhero_info_n, race != "human")
```

```
## # A tibble: 222 × 10
##    name  gender eye_color race  hair_color height publisher skin_color alignment
##    <chr> <chr>  <chr>     <chr> <chr>      <chr>  <chr>     <chr>      <chr>    
##  1 abe … male   blue      icth… no hair    191    dark hor… blue       good     
##  2 abin… male   blue      unga… no hair    185    dc comics red        good     
##  3 abom… male   green     huma… no hair    203    marvel c… <NA>       bad      
##  4 abra… male   blue      cosm… black      <NA>   marvel c… <NA>       bad      
##  5 ajax  male   brown     cybo… black      193    marvel c… <NA>       bad      
##  6 alien male   <NA>      xeno… no hair    244    dark hor… black      bad      
##  7 amazo male   red       andr… <NA>       257    dc comics <NA>       bad      
##  8 angel male   <NA>      vamp… <NA>       <NA>   dark hor… <NA>       good     
##  9 ange… female yellow    muta… black      165    marvel c… <NA>       good     
## 10 anti… male   yellow    god … no hair    61     dc comics <NA>       bad      
## # ℹ 212 more rows
## # ℹ 1 more variable: weight <chr>
```
…
8. Among the bad guys, who are the male humans over 200 inches in height?

```r
bad_guys$height <- as.numeric(bad_guys$height)
bad_guys %>% 
  filter(gender == "male") %>% 
  filter(height >= 200)
```

```
## # A tibble: 22 × 10
##    name  gender eye_color race  hair_color height publisher skin_color alignment
##    <chr> <chr>  <chr>     <chr> <chr>       <dbl> <chr>     <chr>      <chr>    
##  1 abom… male   green     huma… no hair       203 marvel c… <NA>       bad      
##  2 alien male   <NA>      xeno… no hair       244 dark hor… black      bad      
##  3 amazo male   red       andr… <NA>          257 dc comics <NA>       bad      
##  4 apoc… male   red       muta… black         213 marvel c… grey       bad      
##  5 bane  male   <NA>      human <NA>          203 dc comics <NA>       bad      
##  6 dark… male   red       new … no hair       267 dc comics grey       bad      
##  7 doct… male   brown     human brown         201 marvel c… <NA>       bad      
##  8 doct… male   brown     <NA>  brown         201 marvel c… <NA>       bad      
##  9 doom… male   red       alien white         244 dc comics <NA>       bad      
## 10 kill… male   red       meta… no hair       244 dc comics green      bad      
## # ℹ 12 more rows
## # ℹ 1 more variable: weight <chr>
```
…
10. Let's explore who the really small superheros are. In the `superhero_info` data, which have a weight less than 50? Be sure to sort your results by weight lowest to highest.  

```r
superhero_info_n$weight <- as.numeric(superhero_info_n$weight)
```


```r
superhero_info_n %>% 
  filter(weight <= 50) %>% 
  arrange(weight)
```

```
## # A tibble: 31 × 10
##    name  gender eye_color race  hair_color height publisher skin_color alignment
##    <chr> <chr>  <chr>     <chr> <chr>      <chr>  <chr>     <chr>      <chr>    
##  1 iron… male   blue      <NA>  no hair    <NA>   marvel c… <NA>       bad      
##  2 groot male   yellow    flor… <NA>       701    marvel c… <NA>       good     
##  3 jack… male   blue      human brown      71     dark hor… <NA>       good     
##  4 gala… male   black     cosm… black      876    marvel c… <NA>       neutral  
##  5 yoda  male   brown     yoda… white      66     george l… green      good     
##  6 fin … male   red       kaka… no hair    975    marvel c… green      good     
##  7 howa… male   brown     <NA>  yellow     79     marvel c… <NA>       good     
##  8 kryp… male   blue      kryp… white      64     dc comics <NA>       good     
##  9 rock… male   brown     anim… brown      122    marvel c… <NA>       good     
## 10 dash  male   blue      human blond      122    dark hor… <NA>       good     
## # ℹ 21 more rows
## # ℹ 1 more variable: weight <dbl>
```

11. Let's make a new variable that is the ratio of height to weight. Call this variable `height_weight_ratio`.    

```r
superhero_info %>% 
  mutate(height_weight_ratio = Height/Weight) %>% 
  arrange(desc(height_weight_ratio))
```

```
## # A tibble: 734 × 11
##    name      Gender `Eye color` Race  `Hair color` Height Publisher `Skin color`
##    <chr>     <chr>  <chr>       <chr> <chr>         <dbl> <chr>     <chr>       
##  1 Groot     Male   yellow      Flor… <NA>            701 Marvel C… <NA>        
##  2 Galactus  Male   black       Cosm… Black           876 Marvel C… <NA>        
##  3 Fin Fang… Male   red         Kaka… No Hair         975 Marvel C… green       
##  4 Longshot  Male   blue        Human Blond           188 Marvel C… <NA>        
##  5 Jack-Jack Male   blue        Human Brown            71 Dark Hor… <NA>        
##  6 Rocket R… Male   brown       Anim… Brown           122 Marvel C… <NA>        
##  7 Dash      Male   blue        Human Blond           122 Dark Hor… <NA>        
##  8 Howard t… Male   brown       <NA>  Yellow           79 Marvel C… <NA>        
##  9 Swarm     Male   yellow      Muta… No Hair         196 Marvel C… yellow      
## 10 Yoda      Male   brown       Yoda… White            66 George L… green       
## # ℹ 724 more rows
## # ℹ 3 more variables: Alignment <chr>, Weight <dbl>, height_weight_ratio <dbl>
```
…
